<svg width="20" height="21" viewBox="0 0 20 21" fill="none" xmlns="http://www.w3.org/2000/svg">
<path d="M13.8503 3.47373C13.442 3.0654 12.7836 3.0654 12.3753 3.47373L5.45029 10.3987C5.12529 10.7237 5.12529 11.2487 5.45029 11.5737L12.3753 18.4987C12.7836 18.9071 13.442 18.9071 13.8503 18.4987C14.2586 18.0904 14.2586 17.4321 13.8503 17.0237L7.81696 10.9821L13.8586 4.9404C14.2586 4.5404 14.2586 3.87373 13.8503 3.47373Z" fill="#FFD600"/>
</svg>
