{
    "Allotments": [
        {
            "name":"Potato",
            "duration": 40,
            "img": "osrs/img_potato",
            "game": 1, 
            "level": "1"
        },
        {
            "name":"Onion",
            "duration": 40,
            "img": "osrs/img_onion",
            "game": 1, 
            "level": "5"
        }, 
        {
            "name":"Cabbage",
            "duration": 40,
            "img": "osrs/img_cabbage",
            "game": 1, 
            "level": "7"
        },
        {
            "name":"Tomato",
            "duration": 40,
            "img": "osrs/img_tomato",
            "game": 1, 
            "level": "12"
        },
        {
            "name":"Sweetcorn",
            "duration": 60,
            "img": "osrs/img_sweetcorn",
            "game": 1, 
            "level": "20"
        },
        {
            "name":"Strawberry",
            "duration": 60,
            "img": "osrs/img_strawberry",
            "game": 1, 
            "level": "31"
        },
        {
            "name":"Watermelon",
            "duration": 80,
            "img": "osrs/img_watermelon",
            "game": 1, 
            "level": "47"
        },
        {
            "name":"Snapegrass",
            "duration": 200,
            "img": "osrs/img_snapegrass",
            "game": 1, 
            "level": "61"
        }
    ],
    "Bushes": [
        {
            "name":"Redberry",
            "duration": 100,
            "img": "osrs/img_redberry",
            "game": 1, 
            "level": "10"
        },
        {
            "name":"Cadavaberry",
            "duration": 120,
            "img": "osrs/img_cadavaberry",
            "game": 1, 
            "level": "22"
        },
        {
            "name":"Dwellberry",
            "duration": 140,
            "img": "osrs/img_dwellberry",
            "game": 1, 
            "level": "36"
        },
        {
            "name":"Jangerberry",
            "duration": 160,
            "img": "osrs/img_jangerberry",
            "game": 1, 
            "level": "48"
        },
        {
            "name":"Whiteberry",
            "duration": 160,
            "img": "osrs/img_whiteberry",
            "game": 1, 
            "level": "59"
        },
        {
            "name":"Poison Ivy",
            "duration": 160,
            "img": "osrs/img_poison_ivy",
            "game": 1, 
            "level": "70"
        }
    ],
    
    "Flowers": [
        {
            "name":"Marigold",
            "duration": 20,
            "img": "osrs/img_marigold",
            "game": 1, 
            "level": "2"
        },
        {
            "name":"Rosemary",
            "duration": 20,
            "img": "osrs/img_rosemary",
            "game": 1, 
            "level": "11"
        },
        {
            "name":"Nasturtium",
            "duration": 20,
            "img": "osrs/img_nasturtium",
            "game": 1, 
            "level": "24"
        },
        {
            "name":"Woad",
            "duration": 20,
            "img": "osrs/img_woad",
            "game": 1, 
            "level": "25"
        },
        {
            "name":"Limpwurt",
            "duration": 20,
            "img": "osrs/img_limpwurt",
            "game": 1, 
            "level": "26"
        },
        {
            "name":"White Lily",
            "duration": 80,
            "img": "osrs/img_white_lily",
            "game": 1, 
            "level": "52"
        }
    ],
    "Fruit Trees": [
        {
            "name":"Apple",
            "duration": 960,
            "img": "osrs/img_apple_tree",
            "game": 1, 
            "level": "27"
        },
        {
            "name":"Banana",
            "duration": 960,
            "img": "osrs/img_banana_tree",
            "game": 1, 
            "level": "33"
        },
        {
            "name":"Orange",
            "duration": 960,
            "img": "osrs/img_orange_tree",
            "game": 1, 
            "level": "39"
        },
        {
            "name":"Curry",
            "duration": 960,
            "img": "osrs/img_curry_tree",
            "game": 1, 
            "level": "42"
        },
        {
            "name":"Pineapple",
            "duration": 960,
            "img": "osrs/img_pineapple_tree",
            "game": 1, 
            "level": "51"
        },
        {
            "name":"Papaya",
            "duration": 960,
            "img": "osrs/img_papaya_tree",
            "game": 1, 
            "level": "57"
        },
        {
            "name":"Palm",
            "duration": 960,
            "img": "osrs/img_palm_tree",
            "game": 1, 
            "level": "68"
        },
        {
            "name":"Dragon Fruit",
            "duration": 960,
            "img": "osrs/img_palm_tree",
            "game": 1, 
            "level": "81"
        }
    ],
    "Herbs": [
        {
            "name":"Guam",
            "duration": 80,
            "img": "osrs/img_guam",
            "game": 1, 
            "level": "9"
        },
        {
            "name":"Marrentill",
            "duration": 80,
            "img": "osrs/img_marrentill",
            "game": 1, 
            "level": "14"
        },
        {
            "name":"Tarromin",
            "duration": 80,
            "img": "osrs/img_tarromin",
            "game": 1, 
            "level": "19"
        },
        {
            "name":"Harralander",
            "duration": 80,
            "img": "osrs/img_harralander",
            "game": 1, 
            "level": "26"
        },
        {
            "name":"Gout Tuber",
            "duration": 80,
            "img": "osrs/img_gout_tuber",
            "game": 1, 
            "level": "29"
        },
        {
            "name":"Ranarr",
            "duration": 80,
            "img": "osrs/img_ranarr",
            "game": 1, 
            "level": "32"
        },
        {
            "name":"Toadflax",
            "duration": 80,
            "img": "osrs/img_toadflax",
            "game": 1, 
            "level": "38"
        },
        {
            "name":"Irit",
            "duration": 80,
            "img": "osrs/img_irit",
            "game": 1, 
            "level": "44"
        },
        {
            "name":"Avantoe",
            "duration": 80,
            "img": "osrs/img_avantoe",
            "game": 1, 
            "level": "50"
        },
        {
            "name":"Kwuarm",
            "duration": 80,
            "img": "osrs/img_kwuarm",
            "game": 1, 
            "level": "56"
        },
        {
            "name":"Snapdragon",
            "duration": 80,
            "img": "osrs/img_snapdragon",
            "game": 1, 
            "level": "62"
        },
        {
            "name":"Cadantine",
            "duration": 80,
            "img": "osrs/img_cadantine",
            "game": 1, 
            "level": "67"
        },
        {
            "name":"Lantadyme",
            "duration": 80,
            "img": "osrs/img_lantadyme",
            "game": 1, 
            "level": "73"
        },
        {
            "name":"Dwarf Weed",
            "duration": 80,
            "img": "osrs/img_dwarf_weed",
            "game": 1, 
            "level": "79"
        },
        {
            "name":"Torstol",
            "duration": 80,
            "img": "osrs/img_torstol",
            "game": 1, 
            "level": "85"
        }
    ],
    "Hops": [
        {
            "name":"Barley",
            "duration": 40,
            "img": "osrs/img_barley",
            "game": 1, 
            "level": "3"
        },
        {
            "name":"Hammerstone",
            "duration": 40,
            "img": "osrs/img_hammerstone",
            "game": 1, 
            "level": "4"
        },
        {
            "name":"Asgarnian",
            "duration": 50,
            "img": "osrs/img_asgarnian",
            "game": 1, 
            "level": "8"
        },
        {
            "name":"Jute",
            "duration": 50,
            "img": "osrs/img_jute",
            "game": 1, 
            "level": "13"
        },
        {
            "name":"Yanillian",
            "duration": 60,
            "img": "osrs/img_yanillian",
            "game": 1, 
            "level": "16"
        },
        {
            "name":"Krandorian",
            "duration": 70,
            "img": "osrs/img_krandorian",
            "game": 1, 
            "level": "21"
        },
        {
            "name":"Wildblood",
            "duration": 80,
            "img": "osrs/img_wildblood",
            "game": 1, 
            "level": "28"
        }
    ],
    "Special Trees": [
        {
            "name":"Calquat",
            "duration": 1280,
            "img": "osrs/img_calquat_tree",
            "game": 1, 
            "level": "72"
        },
        {
            "name":"Crystal",
            "duration": 480,
            "img": "osrs/img_crystal_tree",
            "game": 1, 
            "level": "74"
        },
        {
            "name":"Celastrus",
            "duration": 800,
            "img": "osrs/img_celastrus_tree",
            "game": 1, 
            "level": "85"
        },
        {
            "name":"Redwood",
            "duration": 6400,
            "img": "osrs/img_redwood_tree",
            "game": 1, 
            "level": "90"
        }
    ],
    "Hardwood Trees": [
        {
            "name":"Teak",
            "duration": 3840,
            "img": "osrs/img_teak_tree",
            "game": 1, 
            "level": "35"
        },
        {
            "name":"Mahogany",
            "duration": 5120,
            "img": "osrs/img_mahogany_tree",
            "game": 1, 
            "level": "55"
        }
        
    ],
    "Trees": [
        {
            "name":"Acorn",
            "duration": 200,
            "img": "osrs/img_acorn_tree",
            "game": 1, 
            "level": "15"
        },
        {
            "name":"Willow",
            "duration": 280,
            "img": "osrs/img_willow_tree",
            "game": 1, 
            "level": "30"
        },
        {
            "name":"Maple",
            "duration": 320,
            "img": "osrs/img_maple_tree",
            "game": 1, 
            "level": "45"
        },
        {
            "name":"Yew",
            "duration": 400,
            "img": "osrs/img_yew_tree",
            "game": 1, 
            "level": "60"
        },
        {
            "name":"Magic",
            "duration": 480,
            "img": "osrs/img_magic_tree",
            "game": 1, 
            "level": "75"
        }
    ],
    "Cactus": [        
        {
            "name":"Cactus",
            "duration": 540,
            "img": "osrs/img_cactus",
            "game": 1, 
            "level": "55"
        },
        {
            "name":"Potato Cactus",
            "duration": 70,
            "img": "osrs/img_potato_cactus",
            "game": 1, 
            "level": "64"
        }
    ],
    "Special": [
        {
            "name":"Seaweed",
            "duration": 40,
            "img": "osrs/img_seaweed",
            "game": 1, 
            "level": "23"
        },
        {
            "name":"Grape",
            "duration": 35,
            "img": "osrs/img_grape",
            "game": 1, 
            "level": "36"
        },
        {
            "name":"Mushroom",
            "duration": 240,
            "img": "osrs/img_mushroom",
            "game": 1, 
            "level": "53"
        },
        {
            "name":"Belladonna",
            "duration": 320,
            "img": "osrs/img_belladonna",
            "game": 1, 
            "level": "63"
        },
        {
            "name":"Hespori",
            "duration": 1920,
            "img": "osrs/img_hespori",
            "game": 1, 
            "level": "65"
        },
        {
            "name":"Anima",
            "duration": 5120,
            "img": "osrs/img_anima",
            "game": 1, 
            "level": "76"
        }
    ],
    "Bird Houses": [
        {
            "name":"Bird House",
            "duration": 50,
            "img": "osrs/img_birdhouse",
            "game": 1, 
            "level": "5"
        }
    ], 
    "Other" : [
        {
            "name":"Brewing",
            "duration": 1920,
            "img": "osrs/img_beer",
            "game": 1, 
            "level": "0"
        },
        {
            "name":"Fermentation",
            "duration": 640,
            "img": "osrs/img_beer",
            "game": 1, 
            "level": "0"
        },
        {
            "name":"Compost/Ultracompost",
            "duration": 60,
            "img": "osrs/img_compost",
            "game": 1, 
            "level": "0"
        }
    ]
}