{
    "Allotments": [
        {
            "name":"Potato",
            "duration": 40,
            "img": "rs3/img_potato",
            "game": 0, 
            "level": "1"
        },
        {
            "name":"Onion",
            "duration": 40,
            "img": "rs3/img_onion",
            "game": 0, 
            "level": "5"
        }, 
        {
            "name":"Cabbage",
            "duration": 40,
            "img": "rs3/img_cabbage",
            "game": 0, 
            "level": "7"
        },
        {
            "name":"Tomato",
            "duration": 40,
            "img": "rs3/img_tomato",
            "game": 0, 
            "level": "12"
        },
        {
            "name":"Sweetcorn",
            "duration": 60,
            "img": "rs3/img_sweetcorn",
            "game": 0, 
            "level": "20"
        },
        {
            "name":"Strawberry",
            "duration": 60,
            "img": "rs3/img_strawberry",
            "game": 0, 
            "level": "31"
        },
        {
            "name":"Watermelon",
            "duration": 80,
            "img": "rs3/img_watermelon",
            "game": 0, 
            "level": "47"
        },
        {
            "name":"Snapegrass",
            "duration": 200,
            "img": "rs3/img_snapegrass",
            "game": 0, 
            "level": "61"
        },
        {
            "name":"Sunchoke",
            "duration": 200,
            "img": "rs3/img_sunchoke",
            "game": 0, 
            "level": "87"

        },
        {
            "name":"Fly Trap",
            "duration": 200,
            "img": "rs3/img_fly_trap",
            "game": 0, 
            "level": "93"
        }
    ],
    "Bushes": [
        {
            "name":"Redberry",
            "duration": 100,
            "img": "rs3/img_redberry",
            "game": 0, 
            "level": "10"
        },
        {
            "name":"Cadavaberry",
            "duration": 120,
            "img": "rs3/img_cadavaberry",
            "game": 0, 
            "level": "22"
        },
        {
            "name":"Dwellberry",
            "duration": 140,
            "img": "rs3/img_dwellberry",
            "game": 0, 
            "level": "36"
        },
        {
            "name":"Jangerberry",
            "duration": 160,
            "img": "rs3/img_jangerberry",
            "game": 0, 
            "level": "48"
        },
        {
            "name":"Whiteberry",
            "duration": 160,
            "img": "rs3/img_whiteberry",
            "game": 0, 
            "level": "59"
        },
        {
            "name":"Poison Ivy",
            "duration": 160,
            "img": "rs3/img_poison_ivy",
            "game": 0, 
            "level": "70"
        },
        {
            "name":"Barberrt",
            "duration": 200,
            "img": "rs3/img_barberry",
            "game": 0, 
            "level": "77"
        },
        {
            "name":"Avocado",
            "duration": 400,
            "img": "rs3/img_avocado",
            "game": 0, 
            "level": "99"
        },
        {
            "name":"Mango",
            "duration": 400,
            "img": "rs3/img_mango",
            "game": 0, 
            "level": "105"
        },
        {
            "name":"Lychee",
            "duration": 400,
            "img": "rs3/img_lychee",
            "game": 0, 
            "level": "111"
        }
    ],
    "Cactus": [
        {
            "name":"Snapegrass",
            "duration": 560,
            "img": "rs3/img_snapegrass",
            "game": 0, 
            "level": "55"
        },
        {
            "name":"Prickly Pear",
            "duration": 560,
            "img": "rs3/img_prickly_pear",
            "game": 0, 
            "level": "76"
        },
        {
            "name":"Potato",
            "duration": 560,
            "img": "rs3/img_potato_cactus",
            "game": 0, 
            "level": "93"
        },
        {
            "name":"Dragonfruit",
            "duration": 560,
            "img": "rs3/img_dragonfruit",
            "game": 0, 
            "level": "95"
        },
        {
            "name":"Golden Dragonfruit",
            "duration": 560,
            "img": "rs3/img_golden_dragonfruit",
            "game": 0, 
            "level": "116"
        }
    ],
    "Mushrooms": [
        {
            "name":"Bittercap",
            "duration": 240,
            "img": "rs3/img_bittercap",
            "game": 0, 
            "level": "53"
        },
        {
            "name":"Morchella",
            "duration": 240,
            "img": "rs3/img_morchella",
            "game": 0, 
            "level": "74"
        },
        {
            "name":"Stinkshroom",
            "duration": 360,
            "img": "rs3/img_stinkfly",
            "game": 0, 
            "level": "103"
        },
        {
            "name":"Tombshroom",
            "duration": 240,
            "img": "rs3/img_tombshroom",
            "game": 0, 
            "level": "109"
        }
    ],
    "Flowers": [
        {
            "name":"Marigold",
            "duration": 20,
            "img": "rs3/img_marigold",
            "game": 0, 
            "level": "2"
        },
        {
            "name":"Rosemary",
            "duration": 20,
            "img": "rs3/img_rosemary",
            "game": 0, 
            "level": "11"
        },
        {
            "name":"Nasturtium",
            "duration": 20,
            "img": "rs3/img_nasturtium",
            "game": 0, 
            "level": "24"
        },
        {
            "name":"Woad",
            "duration": 20,
            "img": "rs3/img_woad",
            "game": 0, 
            "level": "25"
        },
        {
            "name":"Limpwurt",
            "duration": 20,
            "img": "rs3/img_limpwurt",
            "game": 0, 
            "level": "26"
        },
        {
            "name":"White Lily",
            "duration": 80,
            "img": "rs3/img_white_lily",
            "game": 0, 
            "level": "52"
        },
        {
            "name":"Butterfly",
            "duration": 20,
            "img": "rs3/img_butterfly",
            "game": 0, 
            "level": "88"
        }
    ],
    "Fruit Trees": [
        {
            "name":"Apple",
            "duration": 960,
            "img": "rs3/img_apple_tree",
            "game": 0, 
            "level": "27"
        },
        {
            "name":"Banana",
            "duration": 960,
            "img": "rs3/img_banana_tree",
            "game": 0, 
            "level": "33"
        },
        {
            "name":"Orange",
            "duration": 960,
            "img": "rs3/img_orange_tree",
            "game": 0, 
            "level": "39"
        },
        {
            "name":"Curry",
            "duration": 960,
            "img": "rs3/img_curry_tree",
            "game": 0, 
            "level": "42"
        },
        {
            "name":"Pineapple",
            "duration": 960,
            "img": "rs3/img_pineapple_tree",
            "game": 0, 
            "level": "51"
        },
        {
            "name":"Papaya",
            "duration": 960,
            "img": "rs3/img_papaya_tree",
            "game": 0, 
            "level": "57"
        },
        {
            "name":"Palm",
            "duration": 960,
            "img": "rs3/img_palm_tree",
            "game": 0, 
            "level": "68"
        },
        {
            "name":"Ciku",
            "duration": 800,
            "img": "rs3/img_ciku_tree",
            "game": 0, 
            "level": "101"
        },
        {
            "name":"Guarana",
            "duration": 800,
            "img": "rs3/img_guarana_tree",
            "game": 0, 
            "level": "107"
        },
        {
            "name":"Carambola",
            "duration": 800,
            "img": "rs3/img_carambola_tree",
            "game": 0, 
            "level": "113"
        }
    ],
    "Herbs": [
        {
            "name":"Guam",
            "duration": 80,
            "img": "rs3/img_guam",
            "game": 0, 
            "level": "9"
        },
        {
            "name":"Marrentill",
            "duration": 80,
            "img": "rs3/img_marrentill",
            "game": 0, 
            "level": "14"
        },
        {
            "name":"Tarromin",
            "duration": 80,
            "img": "rs3/img_tarromin",
            "game": 0, 
            "level": "19"
        },
        {
            "name":"Harralander",
            "duration": 80,
            "img": "rs3/img_harralander",
            "game": 0, 
            "level": "26"
        },
        {
            "name":"Gout Tuber",
            "duration": 80,
            "img": "rs3/img_gout_tuber",
            "game": 0, 
            "level": "29"
        },
        {
            "name":"Ranarr",
            "duration": 80,
            "img": "rs3/img_ranarr",
            "game": 0, 
            "level": "32"
        },
        {
            "name":"Spirit Weed",
            "duration": 100,
            "img": "rs3/img_spirit_weed",
            "game": 0, 
            "level": "36"
        },
        {
            "name":"Toadflax",
            "duration": 80,
            "img": "rs3/img_toadflax",
            "game": 0, 
            "level": "38"
        },
        {
            "name":"Irit",
            "duration": 80,
            "img": "rs3/img_irit",
            "game": 0, 
            "level": "44"
        },
        {
            "name":"Wergali",
            "duration": 80,
            "img": "rs3/img_wergali",
            "game": 0, 
            "level": "46"
        },
        {
            "name":"Avantoe",
            "duration": 80,
            "img": "rs3/img_avantoe",
            "game": 0, 
            "level": "50"
        },
        {
            "name":"Kwuarm",
            "duration": 80,
            "img": "rs3/img_kwuarm",
            "game": 0, 
            "level": "56"
        },
        {
            "name":"Bloodweed",
            "duration": 80,
            "img": "rs3/img_bloodweed",
            "game": 0, 
            "level": "32"
        },
        {
            "name":"Snapdragon",
            "duration": 80,
            "img": "rs3/img_snapdragon",
            "game": 0, 
            "level": "62"
        },
        {
            "name":"Cadantine",
            "duration": 80,
            "img": "rs3/img_cadantine",
            "game": 0, 
            "level": "67"
        },
        {
            "name":"Lantadyme",
            "duration": 80,
            "img": "rs3/img_lantadyme",
            "game": 0, 
            "level": "73"
        },
        {
            "name":"Arbuck",
            "duration": 80,
            "img": "rs3/img_arbuck",
            "game": 0, 
            "level": "77"
        },
        {
            "name":"Dwarf Weed",
            "duration": 80,
            "img": "rs3/img_dwarf_weed",
            "game": 0, 
            "level": "79"
        },
        {
            "name":"Torstol",
            "duration": 80,
            "img": "rs3/img_torstol",
            "game": 0, 
            "level": "85"
        },
        {
            "name":"Fellstalk",
            "duration": 80,
            "img": "rs3/img_fellstalk",
            "game": 0, 
            "level": "91"
        }
    ],
    "Hops": [
        {
            "name":"Barley",
            "duration": 40,
            "img": "rs3/img_barley",
            "game": 0, 
            "level": "3"
        },
        {
            "name":"Hammerstone",
            "duration": 40,
            "img": "rs3/img_hammerstone",
            "game": 0, 
            "level": "4"
        },
        {
            "name":"Asgarnian",
            "duration": 50,
            "img": "rs3/img_asgarnian",
            "game": 0, 
            "level": "8"
        },
        {
            "name":"Jute",
            "duration": 50,
            "img": "rs3/img_jute",
            "game": 0, 
            "level": "13"
        },
        {
            "name":"Yanillian",
            "duration": 60,
            "img": "rs3/img_yanillian",
            "game": 0, 
            "level": "16"
        },
        {
            "name":"Krandorian",
            "duration": 70,
            "img": "rs3/img_krandorian",
            "game": 0, 
            "level": "21"
        },
        {
            "name":"Wildblood",
            "duration": 80,
            "img": "rs3/img_wildblood",
            "game": 0, 
            "level": "28"
        },
        {
            "name":"Reed",
            "duration": 80,
            "img": "rs3/img_reed",
            "game": 0, 
            "level": "78"
        },
        {
            "name":"Grapevine",
            "duration": 80,
            "img": "rs3/img_grapevine",
            "game": 0, 
            "level": "95"
        }
    ],
    "Special Trees": [
        {
            "name":"Calquat",
            "duration": 1280,
            "img": "rs3/img_calquat_tree",
            "game": 0, 
            "level": "55"
        },
        {
            "name":"Crystal",
            "duration": 480,
            "img": "rs3/img_crystal_tree",
            "game": 0, 
            "level": "74"
        },
        {
            "name":"Elder",
            "duration": 4200,
            "img": "rs3/img_elder_tree",
            "game": 0, 
            "level": "90"
        },
        {
            "name":"Money",
            "duration": 2880,
            "img": "rs3/img_money_tree",
            "game": 0, 
            "level": "119"
        }
    ],
    "Trees": [
        {
            "name":"Oak",
            "duration": 160,
            "img": "rs3/img_acorn_tree",
            "game": 0, 
            "level": "15"
        },
        {
            "name":"Willow",
            "duration": 240,
            "img": "rs3/img_willow_tree",
            "game": 0, 
            "level": "30"
        },
        {
            "name":"Maple",
            "duration": 320,
            "img": "rs3/img_maple_tree",
            "game": 0, 
            "level": "45"
        },
        {
            "name":"Yew",
            "duration": 400,
            "img": "rs3/img_yew_tree",
            "game": 0, 
            "level": "60"
        },
        {
            "name":"Magic",
            "duration": 480,
            "img": "rs3/img_magic_tree",
            "game": 0, 
            "level": "75"
        }
    ],
    "Player Owned Farm (Small)": [
        {
            "name":"Rabbit - Elder",
            "duration": 60,
            "img": "rs3/img_rabbit",
            "game": 0, 
            "level": "17"
        },
        {
            "name":"Chicken - Elder",
            "duration": 250,
            "img": "rs3/img_chicken",
            "game": 0, 
            "level": "28"
        },
        {
            "name":"Chinchompa - Elder",
            "duration": 2520,
            "img": "rs3/img_chinchompa",
            "game": 0, 
            "level": "54"
        }  
    ],
    "Player Owned Farm (Medium)": [
        {
            "name":"Spider - Elder",
            "duration": 1512,
            "img": "rs3/img_spider",
            "game": 0, 
            "level": "64"
        },
        {
            "name":"Zygomite - Elder",
            "duration": 5040,
            "img": "rs3/img_zygomite",
            "game": 0, 
            "level": "81"
        }
    ],
    "Player Owned Farm (Large)": [
        {
            "name":"Cow - Elder",
            "duration": 360,
            "img": "rs3/img_cow",
            "game": 0, 
            "level": "49"
        },
        {
            "name":"Yak - Elder",
            "duration": 4032,
            "img": "rs3/img_yak",
            "game": 0, 
            "level": "71"
        },
        {
            "name":"Dragon - Elder",
            "duration": 10080,
            "img": "rs3/img_dragon",
            "game": 0, 
            "level": "92"
        }
    ], 
    "Other" : [
        {
            "name":"POF - Trapper",
            "duration": 360,
            "img": "rs3/img_trapper",
            "game": 0, 
            "level": "0"
        }
    ]
}